<?xml version="1.0" encoding="utf-8"?>
<svg version="1.1"
	 id="svg34" xmlns:inkscape="http://www.inkscape.org/namespaces/inkscape" xmlns:sodipodi="http://sodipodi.sourceforge.net/DTD/sodipodi-0.dtd" xmlns:svg="http://www.w3.org/2000/svg"
	 xmlns="http://www.w3.org/2000/svg" xmlns:xlink="http://www.w3.org/1999/xlink" x="0px" y="0px" viewBox="0 0 5000 5000"
	 style="enable-background:new 0 0 5000 5000;" xml:space="preserve">
<style type="text/css">
	.st0{fill:#FFFFFF;}
	.st1{fill:#3E3E3E;}
	.st2{fill:#D54027;}
</style>
<sodipodi:namedview  bordercolor="#666666" borderopacity="1" gridtolerance="10" guidetolerance="10" id="namedview36" inkscape:current-layer="layer1" inkscape:cx="2667.067" inkscape:cy="2411.4903" inkscape:document-rotation="0" inkscape:pagecheckerboard="0" inkscape:pageopacity="0" inkscape:pageshadow="2" inkscape:window-height="779" inkscape:window-maximized="0" inkscape:window-width="1440" inkscape:window-x="-1" inkscape:window-y="25" inkscape:zoom="0.12129429" objecttolerance="10" pagecolor="#ffffff" showgrid="false">
	</sodipodi:namedview>
<path id="Background" class="st0" d="M4249.7,5000H750.3C335.9,5000,0,4664.1,0,4249.7V750.3C0,335.9,335.9,0,750.3,0h3499.4
	C4664.1,0,5000,335.9,5000,750.3v3499.4C5000,4664.1,4664.1,5000,4249.7,5000z"/>
<g id="Layer_2_1_">
	<path id="path15" sodipodi:nodetypes="cccccccccccccccccccccccccccccccccc" class="st1" d="M1696.5,1366.6
		c0,0-335.3-109.6-334.2-440.5c136,85.4,306.1,263.1,544,268.1c-65.7-45.7-297.3-211.4-330.9-326c91.7,55.6,133.8,96.4,163.5,159.7
		c17.7-54.5,5-85.4-25.9-125c60.6,9.3,145.2,97.7,180.1,150.3c1.7-62.7-8.4-78.2-33.6-114c104.9,29.2,157.9,101,205.4,177.9
		c10.4-56.6-3.9-100.8-32.5-143.7c83.6,21.1,139.5,81.6,175.2,153.2c16-67.7,2.7-84.7-20.5-125.7c57.3,13,110.1,52.8,148.1,135.5
		c17.1-64.4,3.8-85.3-17.3-125.8c58.6,9.1,108.1,56.4,138.5,121.4c13.2-37,16.9-74.8-2.7-104.3c42.1,5.8,90.3,53.8,128.1,81.2
		C2551,947,2011.4,535.2,1538.9,549.6c-23.5,0.7-83-30.3-116.7-46.3c-105.3-49.9-222.2-161.5-279.7-277.5
		c-35.2,139.9,101.3,286.3,199.3,349.1c-105.7,16.5-270.9-121.1-319.3-316.1c-59.5,195,83.5,351.8,168.3,384.8
		c-46.3,28.6-73.1,56.5-73.1,56.5l-183.1-63.1l118.7,141.8c-32.3,51.1-37.3,65.5-44.6,121.2l-192,26.4L999.6,997
		c0.6,45,2.2,95.6,7.7,144.3c0,0,0,0-156.7,95.4c183.8-1.3,0,0,183.8-1.3c30.4,68.9,123.9,198.5,123.9,198.5L1696.5,1366.6z"/>
	<path id="path17" sodipodi:nodetypes="cccc" class="st0" d="M1511,705.7c199.1,29.3,0,0,199.1,29.3
		c-40.9-13.2-188.7-80.5-206.5-94.6L1511,705.7z"/>
	<path id="path18" sodipodi:nodetypes="cccccc" class="st1" d="M2792.4,4604.7c188.6-48.6,283.1-196.7,389.5-384.8
		c15.3,11.4,44.2,112.7,103.9,218.1c-21.1-102-54.1-211.7-60.1-335.2c-111.4,108.9-176.4,252.1-425,395.6
		C2783.7,4537.6,2792.4,4604.7,2792.4,4604.7L2792.4,4604.7z"/>
	<path id="path20" sodipodi:nodetypes="cccccc" class="st1" d="M2764.6,4398.6c206.7,6,336.5-158,367.9-206.1
		c-22.2-6-228.8,44.1-283.7,41.9c149.8-47.6,322.8-104.3,377.1-131.7c-28.6,64.8-181.8,292.6-424.8,395.5
		C2777.2,4476.3,2764.6,4398.6,2764.6,4398.6L2764.6,4398.6z"/>
</g>
<g id="F_symbol">
	<path id="path24" class="st2" d="M2898.4,1703.4c20.7,1.6,248.8,7.4,277.8,11.1c39.4,3.8,98.3,6.2,179.8,22.1
		c39,7.6,66.1,10.9,113.1,40.2c159.4,99.3,197.2,221.4,241.8,363.2c35.8,113.5,50.1,223.9,62.7,327.6
		c14.9,121.1,20,231.6,29.1,290.2c26.6,0,380.5,3.4,380.5,3.4s0-1316,0-1431.5c-108.4,0-3202.4,0.4-3202.4,0.4v373.3
		c0,0,297,4.6,322.4,6.7c130,10.5,173.5,55.2,190,105.9c2.7,33.6,24.1,2241.3,10.3,2294.6c-0.6,13.9,0.2,65.7-10,129.8
		c-15.9,123.6-118.4,125.9-143.8,130.6c-41.2,7.5-368.9,29.9-368.9,29.9v373.3h1844.6v-377.1c0,0-240.9-11.3-303.8-14.7
		c-23.2-1.2-119.2-13.3-164.8-25.6c-51.6-13.9-102.3-51.3-107.9-185c-7.1-168.5-16.7-1019-16.7-1019s148.6,11.2,267.4,29.2
		c61.2,9.3,111.6,24.1,135.5,32.8c70.6,25.5,138.5,71.4,171.8,193.6c35.8,131,52.4,207.4,61.7,313c5.7,32.5,4.3,122.7,4.3,141.3
		c24.5,0,380.6,0.1,380.6,0.1V2157h-369.6c0,0-12.3,101.8-32.9,223.6c-28.3,167.4-87.7,306.9-208.7,351.2
		c-68.6,25.1-221.8,37.9-282,44.4c-81.2,0-120.8-0.2-124.1-0.3c0.1-4.9,0-1072.3,0-1072.3h662.2V1703.4z"/>
</g>
<g id="Dragon_body_and_hand">
	<path id="path27" sodipodi:nodetypes="cccccccc" class="st1" d="M2958.7,1352.4l84.6,169.8l4.9-161.2l126.9,209.5l-16.9-190.4
		l203.6,188.9l-219.7-358.5L2863,1330.8"/>
	<path id="path29" class="st1" d="M2236,1806.6c275.9,94.4,424.2,503-35.1,767.5c-459.3,264.6-703.4,245.8-695.5,564.1
		c-201.1-150.9-255.1-453.7-132-665.8C1602.9,2102.3,2244.1,2181,2236,1806.6z"/>
	<path id="path31" class="st1" d="M2232.3,3166.7c209.7,105.5,360.3,525.1-6.9,757.9c-397.3,251.8-575.7,37.2-748.3,371.9
		c-159.2-184.8-141.9-507.1,47.5-655.4C1802.2,3423.6,2240.4,3541,2232.3,3166.7z"/>
</g>
<g id="layer1" inkscape:groupmode="layer" inkscape:label="Layer 1">
</g>
</svg>
